{
    "lib_name": "mylib",
    "description": "Awesome library!",
    "url": "https://gitlab.com/sblancov84",
    "python_version": "3.7.3",
    "author": "Santiago Blanco Ventas",
    "email": "sblancov84@gmail.com",
    "current_year": "2020"
}
